fifo_sync/tb/formal/fifo_sync_prove_fifo/engine_0/trace_induct.vcd
$version Generated by Yosys-SMTBMC $end
$timescale 1ns $end
$var integer 32 t smt_step $end
$var event 1 ! smt_clock $end
$scope module fifo_sync $end
$scope module _witness_ $end
$var wire 1 n0 anyinit_procdff_685 $end
$var wire 1 n1 anyinit_procdff_686 $end
$var wire 1 n2 anyinit_procdff_687 $end
$var wire 1 n3 anyinit_procdff_688 $end
$var wire 1 n4 anyinit_procdff_689 $end
$var wire 1 n5 anyinit_procdff_690 $end
$var wire 1 n6 anyinit_procdff_691 $end
$var wire 1 n7 anyinit_procdff_692 $end
$var wire 1 n8 anyinit_procdff_693 $end
$var wire 1 n9 anyinit_procdff_695 $end
$var wire 1 n10 anyinit_procdff_697 $end
$var wire 1 n11 anyinit_procdff_699 $end
$var wire 1 n12 anyinit_procdff_701 $end
$var wire 1 n13 anyinit_procdff_703 $end
$var wire 1 n14 anyinit_procdff_705 $end
$var wire 1 n15 anyinit_procdff_707 $end
$var wire 1 n16 anyinit_procdff_709 $end
$var wire 1 n17 anyinit_procdff_711 $end
$var wire 1 n18 anyinit_procdff_713 $end
$var wire 1 n19 anyinit_procdff_715 $end
$var wire 1 n20 anyinit_procdff_717 $end
$var wire 1 n21 anyinit_procdff_719 $end
$var wire 1 n22 anyinit_procdff_721 $end
$var wire 1 n23 anyinit_procdff_723 $end
$var wire 1 n24 anyinit_procdff_724 $end
$var wire 32 n25 anyinit_procdff_725 $end
$var wire 1 n26 anyinit_procdff_726 $end
$var wire 1 n27 anyinit_procdff_727 $end
$var wire 11 n28 anyinit_procdff_728 $end
$var wire 32 n29 anyinit_procdff_729 $end
$var wire 1 n30 anyinit_procdff_730 $end
$var wire 1 n31 anyinit_procdff_732 $end
$var wire 1 n32 anyinit_procdff_734 $end
$var wire 1 n33 anyinit_procdff_736 $end
$var wire 1 n34 anyinit_procdff_738 $end
$var wire 1 n35 anyinit_procdff_740 $end
$var wire 1 n36 anyinit_procdff_742 $end
$var wire 1 n37 anyinit_procdff_743 $end
$var wire 1 n38 anyinit_procdff_744 $end
$var wire 1 n39 anyinit_procdff_745 $end
$var wire 1 n40 anyinit_procdff_746 $end
$var wire 1 n41 anyinit_procdff_748 $end
$var wire 1 n42 anyseq_auto_setundef_cc_525_execute_1001 $end
$var wire 1 n43 anyseq_auto_setundef_cc_525_execute_1003 $end
$var wire 1 n44 anyseq_auto_setundef_cc_525_execute_1005 $end
$var wire 1 n45 anyseq_auto_setundef_cc_525_execute_1007 $end
$var wire 1 n46 anyseq_auto_setundef_cc_525_execute_1009 $end
$var wire 1 n47 anyseq_auto_setundef_cc_525_execute_1011 $end
$var wire 1 n48 anyseq_auto_setundef_cc_525_execute_1013 $end
$var wire 1 n49 anyseq_auto_setundef_cc_525_execute_1015 $end
$var wire 1 n50 anyseq_auto_setundef_cc_525_execute_1017 $end
$var wire 1 n51 anyseq_auto_setundef_cc_525_execute_1019 $end
$var wire 1 n52 anyseq_auto_setundef_cc_525_execute_1021 $end
$var wire 1 n53 anyseq_auto_setundef_cc_525_execute_1023 $end
$var wire 1 n54 anyseq_auto_setundef_cc_525_execute_1025 $end
$var wire 1 n55 anyseq_auto_setundef_cc_525_execute_1027 $end
$var wire 1 n56 anyseq_auto_setundef_cc_525_execute_1029 $end
$var wire 1 n57 anyseq_auto_setundef_cc_525_execute_1031 $end
$var wire 1 n58 anyseq_auto_setundef_cc_525_execute_1033 $end
$var wire 1 n59 anyseq_auto_setundef_cc_525_execute_1035 $end
$var wire 1 n60 anyseq_auto_setundef_cc_525_execute_1037 $end
$var wire 1 n61 anyseq_auto_setundef_cc_525_execute_1039 $end
$var wire 1 n62 anyseq_auto_setundef_cc_525_execute_1041 $end
$var wire 1 n63 anyseq_auto_setundef_cc_525_execute_1043 $end
$var wire 1 n64 anyseq_auto_setundef_cc_525_execute_1045 $end
$var wire 1 n65 anyseq_auto_setundef_cc_525_execute_1047 $end
$var wire 1 n66 anyseq_auto_setundef_cc_525_execute_1049 $end
$var wire 1 n67 anyseq_auto_setundef_cc_525_execute_1051 $end
$var wire 1 n68 anyseq_auto_setundef_cc_525_execute_1053 $end
$var wire 1 n69 anyseq_auto_setundef_cc_525_execute_1055 $end
$var wire 1 n70 anyseq_auto_setundef_cc_525_execute_1057 $end
$var wire 1 n71 anyseq_auto_setundef_cc_525_execute_1059 $end
$var wire 1 n72 anyseq_auto_setundef_cc_525_execute_1061 $end
$var wire 32 n73 anyseq_auto_setundef_cc_525_execute_1063 $end
$var wire 10 n74 anyseq_auto_setundef_cc_525_execute_1065 $end
$upscope $end
$var wire 1 n75 f_addr_valid $end
$var wire 1 n76 f_both_in_fifo $end
$var wire 5 n77 f_clk_count $end
$var wire 5 n78 f_clk_step $end
$var wire 11 n79 f_const_addr $end
$var wire 32 n80 f_const_first $end
$var wire 32 n81 f_const_next $end
$var wire 11 n82 f_const_next_addr $end
$var wire 11 n83 f_fill $end
$var wire 1 n84 f_first_in_fifo $end
$var wire 1 n85 f_next_valid $end
$var wire 1 n86 f_past_valid $end
$var wire 1 n87 f_past_valid_gbl $end
$var wire 1 n88 f_read_first $end
$var wire 1 n89 f_read_second $end
$var wire 1 n90 f_second_in_fifo $end
$var wire 1 n91 f_wait_for_first_read $end
$var wire 1 n92 f_wait_for_second_read $end
$var wire 1 n93 i_clk $end
$var wire 32 n94 i_data $end
$var wire 1 n95 i_rd $end
$var wire 1 n96 i_rstn $end
$var wire 1 n97 i_wr $end
$var wire 32 n131 mem<000> $end
$var wire 32 n129 mem<17c> $end
$var wire 32 n126 mem<17d> $end
$var wire 32 n127 mem<17e> $end
$var wire 32 n116 mem<200> $end
$var wire 32 n122 mem<37b> $end
$var wire 32 n124 mem<37d> $end
$var wire 32 n121 mem<37e> $end
$var wire 32 n120 mem<3ee> $end
$var wire 32 n118 mem<3ef> $end
$var wire 32 n109 mem<3f0> $end
$var wire 32 n119 mem<3f1> $end
$var wire 32 n114 mem<3f2> $end
$var wire 32 n110 mem<3f3> $end
$var wire 32 n115 mem<3f4> $end
$var wire 32 n128 mem<3f5> $end
$var wire 32 n130 mem<3f6> $end
$var wire 32 n106 mem<3f7> $end
$var wire 32 n112 mem<3f8> $end
$var wire 32 n108 mem<3f9> $end
$var wire 32 n111 mem<3fa> $end
$var wire 32 n125 mem<3fb> $end
$var wire 32 n123 mem<3fc> $end
$var wire 32 n117 mem<3fd> $end
$var wire 32 n113 mem<3fe> $end
$var wire 32 n107 mem<3ff> $end
$var wire 32 n98 o_data $end
$var wire 1 n99 o_empty $end
$var wire 11 n100 o_fill $end
$var wire 1 n101 o_full $end
$var wire 10 n102 rptr $end
$var wire 10 n103 rptr_next $end
$var wire 10 n104 wptr $end
$var wire 10 n105 wptr_next2 $end
$upscope $end
$enddefinitions $end
#0
1!
b00000000000000000000000000000000 t
b0 n0
b0 n1
b0 n2
b0 n3
b0 n4
b0 n5
b0 n6
b0 n7
b0 n8
b0 n9
b0 n10
b1 n11
b0 n12
b0 n13
b0 n14
b0 n15
b0 n16
b0 n17
b0 n18
b0 n19
b0 n20
b0 n21
b0 n22
b0 n23
b0 n24
b00000000000000000000000000000000 n25
b1 n26
b1 n27
b00000010000 n28
b10000000000000000000000000000000 n29
b0 n30
b0 n31
b0 n32
b0 n33
b0 n34
b0 n35
b0 n36
b0 n37
b0 n38
b1 n39
b1 n40
b0 n41
b0 n42
b0 n43
b0 n44
b0 n45
b0 n46
b0 n47
b0 n48
b0 n49
b0 n50
b0 n51
b0 n52
b0 n53
b0 n54
b0 n55
b0 n56
b0 n57
b0 n58
b0 n59
b0 n60
b0 n61
b0 n62
b0 n63
b0 n64
b0 n65
b0 n66
b0 n67
b0 n68
b0 n69
b0 n70
b0 n71
b1 n72
b00000000000000000000000000000000 n73
b1101111011 n74
b1 n75
b1 n76
b00000 n77
b10010 n78
b11101111101 n79
b10111111111111111111111111111111 n80
b00111111111110111111111111111111 n81
b11101111110 n82
b01001110010 n83
b1 n84
b1 n85
b1 n86
b1 n87
b0 n88
b0 n89
b1 n90
b1 n91
b0 n92
b0 n93
b00000000000000000000000000000000 n94
b1 n95
b1 n96
b0 n97
b00000000000000000000000000000000 n98
b1 n99
b00000010000 n100
b1 n101
b1111101110 n102
b1111101111 n103
b0101111100 n104
b0101111110 n105
b10000000000000000000000000000000 n106
b00111111111110111111111111111111 n107
b10000000000000000000000000000000 n108
b00000000000000000000000000000000 n109
b10000000000000000000000000000000 n110
b00000000000000000000000000000000 n111
b00000000000000000000000000000000 n112
b00000000000000000000000000000000 n113
b00000000000000000000000000000000 n114
b00000000000000000000000000000000 n115
bxxxxxxxxxxxxxxxxxxxxxxxxxxxxxxxx n116
b10000000000000000000000000000000 n117
b10000000000000000000000000000000 n118
b10000000000000000000000000000000 n119
b00000000000000000000000000000000 n120
b00111111111110111111111111111111 n121
bxxxxxxxxxxxxxxxxxxxxxxxxxxxxxxxx n122
b00000000000000000000000000000000 n123
b10111111111111111111111111111111 n124
b10000000000000000000000000000000 n125
bxxxxxxxxxxxxxxxxxxxxxxxxxxxxxxxx n126
bxxxxxxxxxxxxxxxxxxxxxxxxxxxxxxxx n127
b10000000000000000000000000000000 n128
bxxxxxxxxxxxxxxxxxxxxxxxxxxxxxxxx n129
b00000000000000000000000000000000 n130
b10011111111111111111111111111111 n131
#5
#10
1!
b00000000000000000000000000000001 t
b0 n0
b1 n1
b0 n2
b0 n3
b0 n4
b0 n5
b0 n6
b0 n7
b0 n8
b0 n9
b0 n10
b1 n11
b0 n12
b0 n13
b0 n14
b0 n15
b0 n16
b0 n17
b0 n18
b0 n19
b0 n20
b0 n21
b0 n22
b0 n23
b0 n24
b00000000000000000000000000000000 n25
b1 n26
b1 n27
b00000010000 n28
b00000000000000000000000000000000 n29
b1 n30
b1 n31
b1 n32
b1 n33
b1 n34
b1 n35
b1 n36
b1 n37
b0 n38
b1 n39
b1 n40
b1 n41
b0 n42
b0 n43
b0 n44
b0 n45
b0 n46
b0 n47
b0 n48
b0 n49
b0 n50
b0 n51
b0 n52
b0 n53
b0 n54
b0 n55
b0 n56
b0 n57
b0 n58
b0 n59
b0 n60
b0 n61
b0 n62
b0 n63
b0 n64
b0 n65
b0 n66
b0 n67
b0 n68
b0 n69
b0 n70
b0 n71
b1 n72
b00000000000000000000000000000000 n73
b1000000000 n74
b1 n75
b1 n76
b10010 n77
b10010 n78
b11101111101 n79
b10111111111111111111111111111111 n80
b00111111111110111111111111111111 n81
b11101111110 n82
b01001110011 n83
b1 n84
b1 n85
b1 n86
b1 n87
b0 n88
b0 n89
b1 n90
b1 n91
b0 n92
b1 n93
b00000000000000000000000000000000 n94
b1 n95
b1 n96
b0 n97
b10000000000000000000000000000000 n98
b1 n99
b00000001111 n100
b1 n101
b1111101111 n102
b1111110000 n103
b0101111100 n104
b0101111110 n105
b10000000000000000000000000000000 n106
b00111111111110111111111111111111 n107
b10000000000000000000000000000000 n108
b00000000000000000000000000000000 n109
b10000000000000000000000000000000 n110
b00000000000000000000000000000000 n111
b00000000000000000000000000000000 n112
b00000000000000000000000000000000 n113
b00000000000000000000000000000000 n114
b00000000000000000000000000000000 n115
bxxxxxxxxxxxxxxxxxxxxxxxxxxxxxxxx n116
b10000000000000000000000000000000 n117
b10000000000000000000000000000000 n118
b10000000000000000000000000000000 n119
b00000000000000000000000000000000 n120
b00111111111110111111111111111111 n121
bxxxxxxxxxxxxxxxxxxxxxxxxxxxxxxxx n122
b00000000000000000000000000000000 n123
b10111111111111111111111111111111 n124
b10000000000000000000000000000000 n125
bxxxxxxxxxxxxxxxxxxxxxxxxxxxxxxxx n126
bxxxxxxxxxxxxxxxxxxxxxxxxxxxxxxxx n127
b10000000000000000000000000000000 n128
bxxxxxxxxxxxxxxxxxxxxxxxxxxxxxxxx n129
b00000000000000000000000000000000 n130
b10011111111111111111111111111111 n131
#15
#20
1!
b00000000000000000000000000000010 t
b0 n0
b1 n1
b1 n2
b0 n3
b1 n4
b1 n5
b0 n6
b1 n7
b1 n8
b0 n9
b0 n10
b1 n11
b0 n12
b0 n13
b0 n14
b0 n15
b0 n16
b0 n17
b0 n18
b0 n19
b0 n20
b0 n21
b0 n22
b1 n23
b0 n24
b00000000000000000000000000000000 n25
b1 n26
b1 n27
b00000001111 n28
b10000000000000000000000000000000 n29
b0 n30
b0 n31
b0 n32
b0 n33
b0 n34
b0 n35
b1 n36
b1 n37
b1 n38
b1 n39
b1 n40
b0 n41
b0 n42
b0 n43
b0 n44
b0 n45
b0 n46
b0 n47
b0 n48
b0 n49
b0 n50
b0 n51
b0 n52
b0 n53
b0 n54
b0 n55
b0 n56
b0 n57
b0 n58
b0 n59
b0 n60
b0 n61
b0 n62
b0 n63
b0 n64
b0 n65
b0 n66
b0 n67
b0 n68
b0 n69
b0 n70
b0 n71
b1 n72
b00000000000000000000000000000000 n73
b1101111011 n74
b1 n75
b1 n76
b00100 n77
b10010 n78
b11101111101 n79
b10111111111111111111111111111111 n80
b00111111111110111111111111111111 n81
b11101111110 n82
b01001110011 n83
b1 n84
b1 n85
b1 n86
b1 n87
b0 n88
b0 n89
b1 n90
b1 n91
b0 n92
b0 n93
b00000000000000000000000000000000 n94
b1 n95
b1 n96
b0 n97
b10000000000000000000000000000000 n98
b1 n99
b00000001111 n100
b1 n101
b1111101111 n102
b1111110000 n103
b0101111100 n104
b0101111110 n105
b10000000000000000000000000000000 n106
b00111111111110111111111111111111 n107
b10000000000000000000000000000000 n108
b00000000000000000000000000000000 n109
b10000000000000000000000000000000 n110
b00000000000000000000000000000000 n111
b00000000000000000000000000000000 n112
b00000000000000000000000000000000 n113
b00000000000000000000000000000000 n114
b00000000000000000000000000000000 n115
bxxxxxxxxxxxxxxxxxxxxxxxxxxxxxxxx n116
b10000000000000000000000000000000 n117
b10000000000000000000000000000000 n118
b10000000000000000000000000000000 n119
b00000000000000000000000000000000 n120
b00111111111110111111111111111111 n121
bxxxxxxxxxxxxxxxxxxxxxxxxxxxxxxxx n122
b00000000000000000000000000000000 n123
b10111111111111111111111111111111 n124
b10000000000000000000000000000000 n125
bxxxxxxxxxxxxxxxxxxxxxxxxxxxxxxxx n126
bxxxxxxxxxxxxxxxxxxxxxxxxxxxxxxxx n127
b10000000000000000000000000000000 n128
bxxxxxxxxxxxxxxxxxxxxxxxxxxxxxxxx n129
b00000000000000000000000000000000 n130
b10011111111111111111111111111111 n131
#25
#30
1!
b00000000000000000000000000000011 t
b0 n0
b1 n1
b0 n2
b0 n3
b0 n4
b0 n5
b0 n6
b0 n7
b1 n8
b0 n9
b0 n10
b1 n11
b0 n12
b0 n13
b0 n14
b0 n15
b0 n16
b0 n17
b0 n18
b0 n19
b0 n20
b0 n21
b0 n22
b0 n23
b0 n24
b00000000000000000000000000000000 n25
b1 n26
b1 n27
b00000001111 n28
b10000000000000000000000000000000 n29
b1 n30
b1 n31
b1 n32
b1 n33
b1 n34
b1 n35
b1 n36
b1 n37
b0 n38
b1 n39
b1 n40
b1 n41
b0 n42
b0 n43
b0 n44
b0 n45
b0 n46
b0 n47
b0 n48
b0 n49
b0 n50
b0 n51
b0 n52
b0 n53
b0 n54
b0 n55
b0 n56
b0 n57
b0 n58
b0 n59
b0 n60
b0 n61
b0 n62
b0 n63
b0 n64
b0 n65
b0 n66
b0 n67
b0 n68
b0 n69
b0 n70
b0 n71
b1 n72
b00000000000000000000000000000000 n73
b1000000000 n74
b1 n75
b1 n76
b10110 n77
b10010 n78
b11101111101 n79
b10111111111111111111111111111111 n80
b00111111111110111111111111111111 n81
b11101111110 n82
b01001110100 n83
b1 n84
b1 n85
b1 n86
b1 n87
b0 n88
b0 n89
b1 n90
b1 n91
b0 n92
b1 n93
b00000000000000000000000000000000 n94
b1 n95
b1 n96
b0 n97
b00000000000000000000000000000000 n98
b1 n99
b00000001110 n100
b1 n101
b1111110000 n102
b1111110001 n103
b0101111100 n104
b0101111110 n105
b10000000000000000000000000000000 n106
b00111111111110111111111111111111 n107
b10000000000000000000000000000000 n108
b00000000000000000000000000000000 n109
b10000000000000000000000000000000 n110
b00000000000000000000000000000000 n111
b00000000000000000000000000000000 n112
b00000000000000000000000000000000 n113
b00000000000000000000000000000000 n114
b00000000000000000000000000000000 n115
bxxxxxxxxxxxxxxxxxxxxxxxxxxxxxxxx n116
b10000000000000000000000000000000 n117
b10000000000000000000000000000000 n118
b10000000000000000000000000000000 n119
b00000000000000000000000000000000 n120
b00111111111110111111111111111111 n121
bxxxxxxxxxxxxxxxxxxxxxxxxxxxxxxxx n122
b00000000000000000000000000000000 n123
b10111111111111111111111111111111 n124
b10000000000000000000000000000000 n125
bxxxxxxxxxxxxxxxxxxxxxxxxxxxxxxxx n126
bxxxxxxxxxxxxxxxxxxxxxxxxxxxxxxxx n127
b10000000000000000000000000000000 n128
bxxxxxxxxxxxxxxxxxxxxxxxxxxxxxxxx n129
b00000000000000000000000000000000 n130
b10011111111111111111111111111111 n131
#35
#40
1!
b00000000000000000000000000000100 t
b0 n0
b1 n1
b1 n2
b0 n3
b1 n4
b1 n5
b0 n6
b1 n7
b1 n8
b0 n9
b0 n10
b1 n11
b0 n12
b0 n13
b0 n14
b0 n15
b0 n16
b0 n17
b0 n18
b0 n19
b0 n20
b0 n21
b0 n22
b1 n23
b0 n24
b00000000000000000000000000000000 n25
b1 n26
b1 n27
b00000001110 n28
b00000000000000000000000000000000 n29
b0 n30
b0 n31
b0 n32
b0 n33
b0 n34
b0 n35
b1 n36
b1 n37
b1 n38
b1 n39
b1 n40
b0 n41
b0 n42
b0 n43
b0 n44
b0 n45
b0 n46
b0 n47
b0 n48
b0 n49
b0 n50
b0 n51
b0 n52
b0 n53
b0 n54
b0 n55
b0 n56
b0 n57
b0 n58
b0 n59
b0 n60
b0 n61
b0 n62
b0 n63
b0 n64
b0 n65
b0 n66
b0 n67
b0 n68
b0 n69
b0 n70
b0 n71
b1 n72
b00000000000000000000000000000000 n73
b1101111011 n74
b1 n75
b1 n76
b01000 n77
b10010 n78
b11101111101 n79
b10111111111111111111111111111111 n80
b00111111111110111111111111111111 n81
b11101111110 n82
b01001110100 n83
b1 n84
b1 n85
b1 n86
b1 n87
b0 n88
b0 n89
b1 n90
b1 n91
b0 n92
b0 n93
b00000000000000000000000000000000 n94
b1 n95
b1 n96
b0 n97
b00000000000000000000000000000000 n98
b1 n99
b00000001110 n100
b1 n101
b1111110000 n102
b1111110001 n103
b0101111100 n104
b0101111110 n105
b10000000000000000000000000000000 n106
b00111111111110111111111111111111 n107
b10000000000000000000000000000000 n108
b00000000000000000000000000000000 n109
b10000000000000000000000000000000 n110
b00000000000000000000000000000000 n111
b00000000000000000000000000000000 n112
b00000000000000000000000000000000 n113
b00000000000000000000000000000000 n114
b00000000000000000000000000000000 n115
bxxxxxxxxxxxxxxxxxxxxxxxxxxxxxxxx n116
b10000000000000000000000000000000 n117
b10000000000000000000000000000000 n118
b10000000000000000000000000000000 n119
b00000000000000000000000000000000 n120
b00111111111110111111111111111111 n121
bxxxxxxxxxxxxxxxxxxxxxxxxxxxxxxxx n122
b00000000000000000000000000000000 n123
b10111111111111111111111111111111 n124
b10000000000000000000000000000000 n125
bxxxxxxxxxxxxxxxxxxxxxxxxxxxxxxxx n126
bxxxxxxxxxxxxxxxxxxxxxxxxxxxxxxxx n127
b10000000000000000000000000000000 n128
bxxxxxxxxxxxxxxxxxxxxxxxxxxxxxxxx n129
b00000000000000000000000000000000 n130
b10011111111111111111111111111111 n131
#45
#50
1!
b00000000000000000000000000000101 t
b0 n0
b1 n1
b0 n2
b0 n3
b0 n4
b0 n5
b0 n6
b0 n7
b1 n8
b0 n9
b0 n10
b1 n11
b0 n12
b0 n13
b0 n14
b0 n15
b0 n16
b0 n17
b0 n18
b0 n19
b0 n20
b0 n21
b0 n22
b0 n23
b0 n24
b00000000000000000000000000000000 n25
b1 n26
b1 n27
b00000001110 n28
b00000000000000000000000000000000 n29
b1 n30
b1 n31
b1 n32
b1 n33
b1 n34
b1 n35
b1 n36
b1 n37
b0 n38
b1 n39
b1 n40
b1 n41
b0 n42
b0 n43
b0 n44
b0 n45
b0 n46
b0 n47
b0 n48
b0 n49
b0 n50
b0 n51
b0 n52
b0 n53
b0 n54
b0 n55
b0 n56
b0 n57
b0 n58
b0 n59
b0 n60
b0 n61
b0 n62
b0 n63
b0 n64
b0 n65
b0 n66
b0 n67
b0 n68
b0 n69
b0 n70
b0 n71
b1 n72
b00000000000000000000000000000000 n73
b1000000000 n74
b1 n75
b1 n76
b11010 n77
b10010 n78
b11101111101 n79
b10111111111111111111111111111111 n80
b00111111111110111111111111111111 n81
b11101111110 n82
b01001110101 n83
b1 n84
b1 n85
b1 n86
b1 n87
b0 n88
b0 n89
b1 n90
b1 n91
b0 n92
b1 n93
b00000000000000000000000000000000 n94
b1 n95
b1 n96
b0 n97
b10000000000000000000000000000000 n98
b1 n99
b00000001101 n100
b1 n101
b1111110001 n102
b1111110010 n103
b0101111100 n104
b0101111110 n105
b10000000000000000000000000000000 n106
b00111111111110111111111111111111 n107
b10000000000000000000000000000000 n108
b00000000000000000000000000000000 n109
b10000000000000000000000000000000 n110
b00000000000000000000000000000000 n111
b00000000000000000000000000000000 n112
b00000000000000000000000000000000 n113
b00000000000000000000000000000000 n114
b00000000000000000000000000000000 n115
bxxxxxxxxxxxxxxxxxxxxxxxxxxxxxxxx n116
b10000000000000000000000000000000 n117
b10000000000000000000000000000000 n118
b10000000000000000000000000000000 n119
b00000000000000000000000000000000 n120
b00111111111110111111111111111111 n121
bxxxxxxxxxxxxxxxxxxxxxxxxxxxxxxxx n122
b00000000000000000000000000000000 n123
b10111111111111111111111111111111 n124
b10000000000000000000000000000000 n125
bxxxxxxxxxxxxxxxxxxxxxxxxxxxxxxxx n126
bxxxxxxxxxxxxxxxxxxxxxxxxxxxxxxxx n127
b10000000000000000000000000000000 n128
bxxxxxxxxxxxxxxxxxxxxxxxxxxxxxxxx n129
b00000000000000000000000000000000 n130
b10011111111111111111111111111111 n131
#55
#60
1!
b00000000000000000000000000000110 t
b0 n0
b1 n1
b1 n2
b0 n3
b1 n4
b1 n5
b0 n6
b1 n7
b1 n8
b0 n9
b0 n10
b1 n11
b0 n12
b0 n13
b0 n14
b0 n15
b0 n16
b0 n17
b0 n18
b0 n19
b0 n20
b0 n21
b0 n22
b1 n23
b0 n24
b00000000000000000000000000000000 n25
b1 n26
b1 n27
b00000001101 n28
b10000000000000000000000000000000 n29
b0 n30
b0 n31
b0 n32
b0 n33
b0 n34
b0 n35
b1 n36
b1 n37
b1 n38
b1 n39
b1 n40
b0 n41
b0 n42
b0 n43
b0 n44
b0 n45
b0 n46
b0 n47
b0 n48
b0 n49
b0 n50
b0 n51
b0 n52
b0 n53
b0 n54
b0 n55
b0 n56
b0 n57
b0 n58
b0 n59
b0 n60
b0 n61
b0 n62
b0 n63
b0 n64
b0 n65
b0 n66
b0 n67
b0 n68
b0 n69
b0 n70
b0 n71
b1 n72
b00000000000000000000000000000000 n73
b1101111011 n74
b1 n75
b1 n76
b01100 n77
b10010 n78
b11101111101 n79
b10111111111111111111111111111111 n80
b00111111111110111111111111111111 n81
b11101111110 n82
b01001110101 n83
b1 n84
b1 n85
b1 n86
b1 n87
b0 n88
b0 n89
b1 n90
b1 n91
b0 n92
b0 n93
b00000000000000000000000000000000 n94
b1 n95
b1 n96
b0 n97
b10000000000000000000000000000000 n98
b1 n99
b00000001101 n100
b1 n101
b1111110001 n102
b1111110010 n103
b0101111100 n104
b0101111110 n105
b10000000000000000000000000000000 n106
b00111111111110111111111111111111 n107
b10000000000000000000000000000000 n108
b00000000000000000000000000000000 n109
b10000000000000000000000000000000 n110
b00000000000000000000000000000000 n111
b00000000000000000000000000000000 n112
b00000000000000000000000000000000 n113
b00000000000000000000000000000000 n114
b00000000000000000000000000000000 n115
bxxxxxxxxxxxxxxxxxxxxxxxxxxxxxxxx n116
b10000000000000000000000000000000 n117
b10000000000000000000000000000000 n118
b10000000000000000000000000000000 n119
b00000000000000000000000000000000 n120
b00111111111110111111111111111111 n121
bxxxxxxxxxxxxxxxxxxxxxxxxxxxxxxxx n122
b00000000000000000000000000000000 n123
b10111111111111111111111111111111 n124
b10000000000000000000000000000000 n125
bxxxxxxxxxxxxxxxxxxxxxxxxxxxxxxxx n126
bxxxxxxxxxxxxxxxxxxxxxxxxxxxxxxxx n127
b10000000000000000000000000000000 n128
bxxxxxxxxxxxxxxxxxxxxxxxxxxxxxxxx n129
b00000000000000000000000000000000 n130
b10011111111111111111111111111111 n131
#65
#70
1!
b00000000000000000000000000000111 t
b0 n0
b1 n1
b0 n2
b0 n3
b0 n4
b0 n5
b0 n6
b0 n7
b1 n8
b0 n9
b0 n10
b1 n11
b0 n12
b0 n13
b0 n14
b0 n15
b0 n16
b0 n17
b0 n18
b0 n19
b0 n20
b0 n21
b0 n22
b0 n23
b0 n24
b00000000000000000000000000000000 n25
b1 n26
b1 n27
b00000001101 n28
b10000000000000000000000000000000 n29
b1 n30
b1 n31
b1 n32
b1 n33
b1 n34
b1 n35
b1 n36
b1 n37
b0 n38
b1 n39
b1 n40
b1 n41
b0 n42
b0 n43
b0 n44
b0 n45
b0 n46
b0 n47
b0 n48
b0 n49
b0 n50
b0 n51
b0 n52
b0 n53
b0 n54
b0 n55
b0 n56
b0 n57
b0 n58
b0 n59
b0 n60
b0 n61
b0 n62
b0 n63
b0 n64
b0 n65
b0 n66
b0 n67
b0 n68
b0 n69
b0 n70
b0 n71
b1 n72
b00000000000000000000000000000000 n73
b1000000000 n74
b1 n75
b1 n76
b11110 n77
b10010 n78
b11101111101 n79
b10111111111111111111111111111111 n80
b00111111111110111111111111111111 n81
b11101111110 n82
b01001110110 n83
b1 n84
b1 n85
b1 n86
b1 n87
b0 n88
b0 n89
b1 n90
b1 n91
b0 n92
b1 n93
b00000000000000000000000000000000 n94
b1 n95
b1 n96
b0 n97
b00000000000000000000000000000000 n98
b1 n99
b00000001100 n100
b1 n101
b1111110010 n102
b1111110011 n103
b0101111100 n104
b0101111110 n105
b10000000000000000000000000000000 n106
b00111111111110111111111111111111 n107
b10000000000000000000000000000000 n108
b00000000000000000000000000000000 n109
b10000000000000000000000000000000 n110
b00000000000000000000000000000000 n111
b00000000000000000000000000000000 n112
b00000000000000000000000000000000 n113
b00000000000000000000000000000000 n114
b00000000000000000000000000000000 n115
bxxxxxxxxxxxxxxxxxxxxxxxxxxxxxxxx n116
b10000000000000000000000000000000 n117
b10000000000000000000000000000000 n118
b10000000000000000000000000000000 n119
b00000000000000000000000000000000 n120
b00111111111110111111111111111111 n121
bxxxxxxxxxxxxxxxxxxxxxxxxxxxxxxxx n122
b00000000000000000000000000000000 n123
b10111111111111111111111111111111 n124
b10000000000000000000000000000000 n125
bxxxxxxxxxxxxxxxxxxxxxxxxxxxxxxxx n126
bxxxxxxxxxxxxxxxxxxxxxxxxxxxxxxxx n127
b10000000000000000000000000000000 n128
bxxxxxxxxxxxxxxxxxxxxxxxxxxxxxxxx n129
b00000000000000000000000000000000 n130
b10011111111111111111111111111111 n131
#75
#80
1!
b00000000000000000000000000001000 t
b0 n0
b1 n1
b1 n2
b0 n3
b1 n4
b1 n5
b0 n6
b1 n7
b1 n8
b0 n9
b0 n10
b1 n11
b0 n12
b0 n13
b0 n14
b0 n15
b0 n16
b0 n17
b0 n18
b0 n19
b0 n20
b0 n21
b0 n22
b1 n23
b0 n24
b00000000000000000000000000000000 n25
b1 n26
b1 n27
b00000001100 n28
b00000000000000000000000000000000 n29
b0 n30
b0 n31
b0 n32
b0 n33
b0 n34
b0 n35
b1 n36
b1 n37
b1 n38
b1 n39
b1 n40
b0 n41
b0 n42
b0 n43
b0 n44
b0 n45
b0 n46
b0 n47
b0 n48
b0 n49
b0 n50
b0 n51
b0 n52
b0 n53
b0 n54
b0 n55
b0 n56
b0 n57
b0 n58
b0 n59
b0 n60
b0 n61
b0 n62
b0 n63
b0 n64
b0 n65
b0 n66
b0 n67
b0 n68
b0 n69
b0 n70
b0 n71
b1 n72
b00000000000000000000000000000000 n73
b1000000000 n74
b1 n75
b1 n76
b10000 n77
b10010 n78
b11101111101 n79
b10111111111111111111111111111111 n80
b00111111111110111111111111111111 n81
b11101111110 n82
b01001110110 n83
b1 n84
b1 n85
b1 n86
b1 n87
b0 n88
b0 n89
b1 n90
b1 n91
b0 n92
b1 n93
b00000000000000000000000000000000 n94
b1 n95
b1 n96
b0 n97
b00000000000000000000000000000000 n98
b1 n99
b00000001100 n100
b1 n101
b1111110010 n102
b1111110011 n103
b0101111100 n104
b0101111110 n105
b10000000000000000000000000000000 n106
b00111111111110111111111111111111 n107
b10000000000000000000000000000000 n108
b00000000000000000000000000000000 n109
b10000000000000000000000000000000 n110
b00000000000000000000000000000000 n111
b00000000000000000000000000000000 n112
b00000000000000000000000000000000 n113
b00000000000000000000000000000000 n114
b00000000000000000000000000000000 n115
bxxxxxxxxxxxxxxxxxxxxxxxxxxxxxxxx n116
b10000000000000000000000000000000 n117
b10000000000000000000000000000000 n118
b10000000000000000000000000000000 n119
b00000000000000000000000000000000 n120
b00111111111110111111111111111111 n121
bxxxxxxxxxxxxxxxxxxxxxxxxxxxxxxxx n122
b00000000000000000000000000000000 n123
b10111111111111111111111111111111 n124
b10000000000000000000000000000000 n125
bxxxxxxxxxxxxxxxxxxxxxxxxxxxxxxxx n126
bxxxxxxxxxxxxxxxxxxxxxxxxxxxxxxxx n127
b10000000000000000000000000000000 n128
bxxxxxxxxxxxxxxxxxxxxxxxxxxxxxxxx n129
b00000000000000000000000000000000 n130
b10011111111111111111111111111111 n131
#85
