fifo_async/dump/fifo_async.vcd
$date
   Fri Aug 20 10:38:26 2021
$end
$version
  2020.2
$end
$timescale
  1ps
$end
$scope module async_fifo_tb $end
$var reg 8 ! rdata [7:0] $end
$var reg 1 " wfull $end
$var reg 1 # rempty $end
$var reg 8 $ wdata [7:0] $end
$var reg 1 % winc $end
$var reg 1 & wclk $end
$var reg 1 ' wrst_n $end
$var reg 1 ( rinc $end
$var reg 1 ) rclk $end
$var reg 1 * rrst_n $end
$var reg 32 + verif_data_q $end
$var reg 8 , verif_wdata [7:0] $end
$var parameter 32 - DSIZE [31:0] $end
$var parameter 32 . ASIZE [31:0] $end
$scope module dut $end
$var wire 1 / i_wclk $end
$var wire 1 0 i_wrstn $end
$var wire 1 1 i_wr $end
$var wire 8 2 i_wdata [7:0] $end
$var reg 1 " o_wfull $end
$var wire 1 3 i_rclk $end
$var wire 1 4 i_rrstn $end
$var wire 1 5 i_rd $end
$var wire 8 6 o_rdata [7:0] $end
$var reg 1 # o_rempty $end
$var reg 5 7 rq1_wptr [4:0] $end
$var reg 5 8 rq2_wptr [4:0] $end
$var wire 4 9 raddr [3:0] $end
$var reg 5 : rbin [4:0] $end
$var wire 5 ; rbinnext [4:0] $end
$var reg 5 < rptr [4:0] $end
$var wire 5 = rgraynext [4:0] $end
$var wire 1 > rempty_val $end
$var reg 5 ? wq1_rptr [4:0] $end
$var reg 5 @ wq2_rptr [4:0] $end
$var wire 4 A waddr [3:0] $end
$var reg 5 B wbin [4:0] $end
$var wire 5 C wbinnext [4:0] $end
$var reg 5 D wptr [4:0] $end
$var wire 5 E wgraynext [4:0] $end
$var wire 1 F wfull_val $end
$var parameter 32 G DATA_WIDTH [31:0] $end
$var parameter 32 H ADDR_WIDTH [31:0] $end
$upscope $end
$scope begin Block55_22 $end
$var reg 32 I iter $end
$scope begin Block56_23 $end
$var reg 32 J i $end
$upscope $end
$upscope $end
$scope begin Block75_25 $end
$var reg 32 K iter $end
$scope begin Block76_26 $end
$var reg 32 L i $end
$upscope $end
$upscope $end
$upscope $end
$enddefinitions $end
#0
$dumpvars
bx !
0"
1#
b0 $
0%
0&
0'
0(
0)
0*
b0 +
bx ,
b1000 -
b100 .
0/
00
01
b0 2
03
04
05
bx 6
b0 7
b0 8
b0 9
b0 :
b0 ;
b0 <
b0 =
1>
b0 ?
b0 @
b0 A
b0 B
b0 C
b0 D
b0 E
0F
b1000 G
b100 H
b0 I
b0 J
b0 K
b0 L
$end
#10000
1&
1/
b0 B
#20000
0&
0/
#30000
1&
1/
b0 B
#35000
1)
13
b0 :
#40000
0&
0/
#50000
1&
1/
b0 B
#60000
0&
0/
#70000
1&
0)
1/
03
b0 B
#80000
0&
0/
#90000
1&
1'
1/
10
b0 B
#100000
0&
0/
#105000
1)
13
b0 :
#110000
b10011100 !
b10011100 $
1%
1&
1/
11
b10011100 2
b10011100 6
b0 B
b1 C
b1 E
b1 J
#120000
0&
0/
#130000
0%
1&
1/
01
b1 A
b1 B
b1 C
b1 D
b1 E
b10 J
#140000
0&
0)
0/
03
#150000
b111101 $
1%
1&
1/
11
b111101 2
b10011100 6
b1 B
b10 C
b11 E
b11 J
#160000
0&
0/
#170000
0%
1&
1/
01
b10 A
b10 B
b10 C
b11 D
b11 E
b100 J
#175000
1)
13
b0 :
#180000
0&
0/
#190000
b1000100 $
1%
1&
1/
11
b1000100 2
b10011100 6
b10 B
b11 C
b10 E
b101 J
#200000
0&
0/
#210000
0%
1&
0)
1/
01
03
b11 A
b11 B
b11 C
b10 D
b10 E
b110 J
#220000
0&
0/
#230000
b1000001 $
1%
1&
1/
11
b1000001 2
b10011100 6
b11 B
b100 C
b110 E
b111 J
#240000
0&
0/
#245000
1)
13
b0 :
#250000
0%
1&
1/
01
b100 A
b100 B
b100 C
b110 D
b110 E
b1000 J
#260000
0&
0/
#270000
b10100111 $
1%
1&
1/
11
b10100111 2
b10011100 6
b100 B
b101 C
b111 E
b1001 J
#280000
0&
0)
0/
03
#290000
0%
1&
1/
01
b101 A
b101 B
b101 C
b111 D
b111 E
b1010 J
#300000
0&
0/
#310000
b11111001 $
1%
1&
1/
11
b11111001 2
b10011100 6
b101 B
b110 C
b101 E
b1011 J
#315000
1)
13
b0 :
#320000
0&
0/
#330000
0%
1&
1/
01
b110 A
b110 B
b110 C
b101 D
b101 E
b1100 J
#340000
0&
0/
#350000
b1 $
1%
1&
0)
1/
11
b1 2
03
b10011100 6
b110 B
b111 C
b100 E
b1101 J
#360000
0&
0/
#370000
0%
1&
1/
01
b111 A
b111 B
b111 C
b100 D
b100 E
b1110 J
#380000
0&
0/
#385000
1)
13
b0 :
#390000
b1000100 $
1%
1&
1/
11
b1000100 2
b10011100 6
b111 B
b1000 C
b1100 E
b1111 J
#400000
0&
0/
#410000
0%
1&
1/
01
b1000 A
b1000 B
b1000 C
b1100 D
b1100 E
b10000 J
#420000
0&
0)
0/
03
#430000
b110110 $
1%
1&
1/
11
b110110 2
b10011100 6
b1000 B
b1001 C
b1101 E
b10001 J
#440000
0&
0/
#450000
0%
1&
1/
01
b1001 A
b1001 B
b1001 C
b1101 D
b1101 E
b10010 J
#455000
1)
13
b0 :
#460000
0&
0/
#470000
b1000101 $
1%
1&
1/
11
b1000101 2
b10011100 6
b1001 B
b1010 C
b1111 E
b10011 J
#480000
0&
0/
#490000
0%
1&
0)
1/
01
03
b1010 A
b1010 B
b1010 C
b1111 D
b1111 E
b10100 J
#500000
0&
0/
#510000
b10000101 $
1%
1&
1/
11
b10000101 2
b10011100 6
b1010 B
b1011 C
b1110 E
b10101 J
#520000
0&
0/
#525000
1)
1*
13
14
b1111 7
b0 :
#530000
0%
1&
1/
01
b1011 A
b1011 B
b1011 C
b1110 D
b1110 E
b10110 J
#540000
0&
0/
#550000
b11011110 $
1%
1&
1/
11
b11011110 2
b10011100 6
b1011 B
b1100 C
b1010 E
b10111 J
#560000
0&
0)
0/
03
#570000
0%
1&
1/
01
b1100 A
b1100 B
b1100 C
b1010 D
b1010 E
b11000 J
#580000
0&
0/
#590000
b111111 $
1%
1&
1/
11
b111111 2
b10011100 6
b1100 B
b1101 C
b1011 E
b11001 J
#595000
1)
13
b1010 7
b1111 8
b0 :
0>
#600000
0&
0/
#610000
0%
1&
1/
01
b1101 A
b1101 B
b1101 C
b1011 D
b1011 E
b11010 J
#620000
0&
0/
#630000
b10000110 $
1%
1&
0)
1/
11
b10000110 2
03
b10011100 6
b1101 B
b1110 C
b1001 E
b11011 J
#640000
0&
0/
#650000
0%
1&
1/
01
b1110 A
b1110 B
b1110 C
b1001 D
b1001 E
b11100 J
#660000
0&
0/
#665000
0#
1)
13
b1001 7
b1010 8
b0 :
b0 ;
#670000
b100010 $
1%
1&
1/
11
b100010 2
b10011100 6
b1110 B
b1111 C
b1000 E
b11101 J
#680000
0&
0/
#690000
0%
1&
1/
01
b1111 A
b1111 B
b1111 C
b1000 D
b1000 E
b11110 J
#700000
0&
0)
0/
03
#710000
b1110101 $
1%
1&
1/
11
b1110101 2
b10011100 6
b1111 B
b10000 C
b11000 E
1F
b11111 J
#720000
0&
0/
#730000
1"
0%
1&
1/
01
b0 A
b10000 B
b10000 C
b11000 D
b11000 E
1F
b100000 J
#735000
1(
1)
b10011100 ,
13
15
b11000 7
b1001 8
b0 :
b1 ;
b1 =
b1 L
#740000
0&
0/
#750000
1&
1/
b10000 B
#760000
0&
0/
#770000
1&
0)
1/
03
b10000 B
#780000
0&
0/
#790000
1&
1/
b10000 B
#800000
0&
0/
#805000
b111101 !
0(
1)
13
05
b111101 6
b11000 8
b1 9
b1 :
b1 ;
b1 <
b1 =
b10 L
#810000
1&
1/
b1 ?
b10000 B
#820000
0&
0/
#830000
1&
1/
b1 @
b10000 B
0F
#840000
0&
0)
0/
03
#850000
0"
1&
1/
b10000 B
b10000 C
#860000
0&
0/
#870000
1&
1/
b10000 B
#875000
1(
1)
b111101 ,
13
15
b1 :
b10 ;
b11 =
b11 L
#880000
0&
0/
#890000
1&
1/
b10000 B
#900000
0&
0/
#910000
1&
0)
1/
03
b10000 B
#920000
0&
0/
#930000
1&
1/
b10000 B
#940000
0&
0/
#945000
b1000100 !
0(
1)
13
05
b1000100 6
b10 9
b10 :
b10 ;
b11 <
b11 =
b100 L
#950000
1&
1/
b11 ?
b10000 B
#960000
0&
0/
#970000
1&
1/
b11 @
b10000 B
#980000
0&
0)
0/
03
#990000
1&
1/
b10000 B
#1000000
0&
0/
#1010000
1&
1/
b10000 B
#1015000
1(
1)
b1000100 ,
13
15
b10 :
b11 ;
b10 =
b101 L
#1020000
0&
0/
#1030000
1&
1/
b10000 B
#1040000
0&
0/
#1050000
1&
0)
1/
03
b10000 B
#1060000
0&
0/
#1070000
1&
1/
b10000 B
#1080000
0&
0/
#1085000
b1000001 !
0(
1)
13
05
b1000001 6
b11 9
b11 :
b11 ;
b10 <
b10 =
b110 L
#1090000
1&
1/
b10 ?
b10000 B
#1100000
0&
0/
#1110000
1&
1/
b10 @
b10000 B
#1120000
0&
0)
0/
03
#1130000
1&
1/
b10000 B
#1140000
0&
0/
#1150000
1&
1/
b10000 B
#1155000
1(
1)
b1000001 ,
13
15
b11 :
b100 ;
b110 =
b111 L
#1160000
0&
0/
#1170000
1&
1/
b10000 B
#1180000
0&
0/
#1190000
1&
0)
1/
03
b10000 B
#1200000
0&
0/
#1210000
1&
1/
b10000 B
#1220000
0&
0/
#1225000
b10100111 !
0(
1)
13
05
b10100111 6
b100 9
b100 :
b100 ;
b110 <
b110 =
b1000 L
#1230000
1&
1/
b110 ?
b10000 B
#1240000
0&
0/
#1250000
1&
1/
b110 @
b10000 B
#1260000
0&
0)
0/
03
#1270000
1&
1/
b10000 B
#1280000
0&
0/
#1290000
1&
1/
b10000 B
#1295000
1(
1)
b10100111 ,
13
15
b100 :
b101 ;
b111 =
b1001 L
#1300000
0&
0/
#1310000
1&
1/
b10000 B
#1320000
0&
0/
#1330000
1&
0)
1/
03
b10000 B
#1340000
0&
0/
#1350000
1&
1/
b10000 B
#1360000
0&
0/
#1365000
b11111001 !
0(
1)
13
05
b11111001 6
b101 9
b101 :
b101 ;
b111 <
b111 =
b1010 L
#1370000
1&
1/
b111 ?
b10000 B
#1380000
0&
0/
#1390000
1&
1/
b111 @
b10000 B
#1400000
0&
0)
0/
03
#1410000
1&
1/
b10000 B
#1420000
0&
0/
#1430000
1&
1/
b10000 B
#1435000
1(
1)
b11111001 ,
13
15
b101 :
b110 ;
b101 =
b1011 L
#1440000
0&
0/
#1450000
1&
1/
b10000 B
#1460000
0&
0/
#1470000
1&
0)
1/
03
b10000 B
#1480000
0&
0/
#1490000
1&
1/
b10000 B
#1500000
0&
0/
#1505000
b1 !
0(
1)
13
05
b1 6
b110 9
b110 :
b110 ;
b101 <
b101 =
b1100 L
#1510000
1&
1/
b101 ?
b10000 B
#1520000
0&
0/
#1530000
1&
1/
b101 @
b10000 B
#1540000
0&
0)
0/
03
#1550000
1&
1/
b10000 B
#1560000
0&
0/
#1570000
1&
1/
b10000 B
#1575000
1(
1)
b1 ,
13
15
b110 :
b111 ;
b100 =
b1101 L
#1580000
0&
0/
#1590000
1&
1/
b10000 B
#1600000
0&
0/
#1610000
1&
0)
1/
03
b10000 B
#1620000
0&
0/
#1630000
1&
1/
b10000 B
#1640000
0&
0/
#1645000
b1000100 !
0(
1)
13
05
b1000100 6
b111 9
b111 :
b111 ;
b100 <
b100 =
b1110 L
#1650000
1&
1/
b100 ?
b10000 B
#1660000
0&
0/
#1670000
1&
1/
b100 @
b10000 B
#1680000
0&
0)
0/
03
#1690000
1&
1/
b10000 B
#1700000
0&
0/
#1710000
1&
1/
b10000 B
#1715000
1(
1)
b1000100 ,
13
15
b111 :
b1000 ;
b1100 =
b1111 L
#1720000
0&
0/
#1730000
b11001100 $
1%
1&
1/
11
b11001100 2
b1000100 6
b10000 B
b10001 C
b11001 E
b1 I
b1 J
#1740000
0&
0/
#1750000
0%
1&
0)
1/
01
03
b1 A
b10001 B
b10001 C
b11001 D
b11001 E
b10 J
#1760000
0&
0/
#1770000
b10100111 $
1%
1&
1/
11
b10100111 2
b1000100 6
b10001 B
b10010 C
b11011 E
b11 J
#1780000
0&
0/
#1785000
b110110 !
0(
1)
13
05
b110110 6
b11001 7
b1000 9
b1000 :
b1000 ;
b1100 <
b1100 =
b10000 L
#1790000
0%
1&
1/
01
b1100 ?
b10 A
b10010 B
b10010 C
b11011 D
b11011 E
b100 J
#1800000
0&
0/
#1810000
b1010011 $
1%
1&
1/
11
b1010011 2
b110110 6
b1100 @
b10010 B
b10011 C
b11010 E
b101 J
#1820000
0&
0)
0/
03
#1830000
0%
1&
1/
01
b11 A
b10011 B
b10011 C
b11010 D
b11010 E
b110 J
#1840000
0&
0/
#1850000
b1011 $
1%
1&
1/
11
b1011 2
b110110 6
b10011 B
b10100 C
b11110 E
b111 J
#1855000
1(
1)
b110110 ,
13
15
b11010 7
b11001 8
b1000 :
b1001 ;
b1101 =
b10001 L
#1860000
0&
0/
#1870000
0%
1&
1/
01
b100 A
b10100 B
b10100 C
b11110 D
b11110 E
b1000 J
#1880000
0&
0/
#1890000
b101110 $
1%
1&
0)
1/
11
b101110 2
03
b110110 6
b10100 B
b10101 C
b11111 E
b1001 J
#1900000
0&
0/
#1910000
0%
1&
1/
01
b101 A
b10101 B
b10101 C
b11111 D
b11111 E
b1010 J
#1920000
0&
0/
#1925000
b1000101 !
0(
1)
13
05
b1000101 6
b11111 7
b11010 8
b1001 9
b1001 :
b1001 ;
b1101 <
b1101 =
b10010 L
#1930000
b1110101 $
1%
1&
1/
11
b1110101 2
b1000101 6
b1101 ?
b10101 B
b10110 C
b11101 E
b1011 J
#1940000
0&
0/
#1950000
0%
1&
1/
01
b1101 @
b110 A
b10110 B
b10110 C
b11101 D
b11101 E
b1100 J
#1960000
0&
0)
0/
03
#1970000
b10000000 $
1%
1&
1/
11
b10000000 2
b1000101 6
b10110 B
b10111 C
b11100 E
b1101 J
#1980000
0&
0/
#1990000
0%
1&
1/
01
b111 A
b10111 B
b10111 C
b11100 D
b11100 E
b1110 J
#1995000
1(
1)
b1000101 ,
13
15
b11100 7
b11111 8
b1001 :
b1010 ;
b1111 =
b10011 L
#2000000
0&
0/
#2010000
b11111010 $
1%
1&
1/
11
b11111010 2
b1000101 6
b10111 B
b11000 C
b10100 E
b1111 J
#2020000
0&
0/
#2030000
0%
1&
0)
1/
01
03
b1000 A
b11000 B
b11000 C
b10100 D
b10100 E
b10000 J
#2040000
0&
0/
#2050000
b11101 $
1%
1&
1/
11
b11101 2
b1000101 6
b11000 B
b11001 C
b10101 E
1F
b10001 J
#2060000
0&
0/
#2065000
b10000101 !
0(
1)
13
05
b10000101 6
b10100 7
b11100 8
b1010 9
b1010 :
b1010 ;
b1111 <
b1111 =
b10100 L
#2070000
1"
0%
1&
1/
01
b1111 ?
b1001 A
b11001 B
b11001 C
b10101 D
b10101 E
1F
b10010 J
#2080000
0&
0/
#2090000
1&
1/
b1111 @
b11001 B
0F
#2100000
0&
0)
0/
03
#2110000
0"
1&
1/
b11001 B
b11001 C
#2120000
0&
0/
#2130000
b11010100 $
1%
1&
1/
11
b11010100 2
b10000101 6
b11001 B
b11010 C
b10111 E
1F
b10011 J
#2135000
1(
1)
b10000101 ,
13
15
b10101 7
b10100 8
b1010 :
b1011 ;
b1110 =
b10101 L
#2140000
0&
0/
#2150000
1"
0%
1&
1/
01
b1010 A
b11010 B
b11010 C
b10111 D
b10111 E
1F
b10100 J
#2160000
0&
0/
#2170000
1&
0)
1/
03
b11010 B
#2180000
0&
0/
#2190000
1&
1/
b11010 B
#2200000
0&
0/
#2205000
b11011110 !
0(
1)
13
05
b11011110 6
b10111 7
b10101 8
b1011 9
b1011 :
b1011 ;
b1110 <
b1110 =
b10110 L
#2210000
1&
1/
b1110 ?
b11010 B
#2220000
0&
0/
#2230000
1&
1/
b1110 @
b11010 B
0F
#2240000
0&
0)
0/
03
#2250000
0"
1&
1/
b11010 B
b11010 C
#2260000
0&
0/
#2270000
b101 $
1%
1&
1/
11
b101 2
b11011110 6
b11010 B
b11011 C
b10110 E
1F
b10101 J
#2275000
1(
1)
b11011110 ,
13
15
b10111 8
b1011 :
b1100 ;
b1010 =
b10111 L
#2280000
0&
0/
#2290000
1"
0%
1&
1/
01
b1011 A
b11011 B
b11011 C
b10110 D
b10110 E
1F
b10110 J
#2300000
0&
0/
#2310000
1&
0)
1/
03
b11011 B
#2320000
0&
0/
#2330000
1&
1/
b11011 B
#2340000
0&
0/
#2345000
b111111 !
0(
1)
13
05
b111111 6
b10110 7
b1100 9
b1100 :
b1100 ;
b1010 <
b1010 =
b11000 L
#2350000
1&
1/
b1010 ?
b11011 B
#2360000
0&
0/
#2370000
1&
1/
b1010 @
b11011 B
0F
#2380000
0&
0)
0/
03
#2390000
0"
1&
1/
b11011 B
b11011 C
#2400000
0&
0/
#2410000
b1001011 $
1%
1&
1/
11
b1001011 2
b111111 6
b11011 B
b11100 C
b10010 E
1F
b10111 J
#2415000
1(
1)
b111111 ,
13
15
b10110 8
b1100 :
b1101 ;
b1011 =
b11001 L
#2420000
0&
0/
#2430000
1"
0%
1&
1/
01
b1100 A
b11100 B
b11100 C
b10010 D
b10010 E
1F
b11000 J
#2440000
0&
0/
#2450000
1&
0)
1/
03
b11100 B
#2460000
0&
0/
#2470000
1&
1/
b11100 B
#2480000
0&
0/
#2485000
b10000110 !
0(
1)
13
05
b10000110 6
b10010 7
b1101 9
b1101 :
b1101 ;
b1011 <
b1011 =
b11010 L
#2490000
1&
1/
b1011 ?
b11100 B
#2500000
0&
0/
#2510000
1&
1/
b1011 @
b11100 B
0F
#2520000
0&
0)
0/
03
#2530000
0"
1&
1/
b11100 B
b11100 C
#2540000
0&
0/
#2550000
b1001001 $
1%
1&
1/
11
b1001001 2
b10000110 6
b11100 B
b11101 C
b10011 E
1F
b11001 J
#2555000
1(
1)
b10000110 ,
13
15
b10010 8
b1101 :
b1110 ;
b1001 =
b11011 L
#2560000
0&
0/
#2570000
1"
0%
1&
1/
01
b1101 A
b11101 B
b11101 C
b10011 D
b10011 E
1F
b11010 J
#2580000
0&
0/
#2590000
1&
0)
1/
03
b11101 B
#2600000
0&
0/
#2610000
1&
1/
b11101 B
#2620000
0&
0/
#2625000
b100010 !
0(
1)
13
05
b100010 6
b10011 7
b1110 9
b1110 :
b1110 ;
b1001 <
b1001 =
b11100 L
#2630000
1&
1/
b1001 ?
b11101 B
#2640000
0&
0/
#2650000
1&
1/
b1001 @
b11101 B
0F
#2660000
0&
0)
0/
03
#2670000
0"
1&
1/
b11101 B
b11101 C
#2680000
0&
0/
#2690000
b10000101 $
1%
1&
1/
11
b10000101 2
b100010 6
b11101 B
b11110 C
b10001 E
1F
b11011 J
#2695000
1(
1)
b100010 ,
13
15
b10011 8
b1110 :
b1111 ;
b1000 =
b11101 L
#2700000
0&
0/
#2710000
1"
0%
1&
1/
01
b1110 A
b11110 B
b11110 C
b10001 D
b10001 E
1F
b11100 J
#2720000
0&
0/
#2730000
1&
0)
1/
03
b11110 B
#2740000
0&
0/
#2750000
1&
1/
b11110 B
#2760000
0&
0/
#2765000
b1110101 !
0(
1)
13
05
b1110101 6
b10001 7
b1111 9
b1111 :
b1111 ;
b1000 <
b1000 =
b11110 L
#2770000
1&
1/
b1000 ?
b11110 B
#2780000
0&
0/
#2790000
1&
1/
b1000 @
b11110 B
0F
#2800000
0&
0)
0/
03
#2810000
0"
1&
1/
b11110 B
b11110 C
#2820000
0&
0/
#2830000
b1000101 $
1%
1&
1/
11
b1000101 2
b1110101 6
b11110 B
b11111 C
b10000 E
1F
b11101 J
#2835000
1(
1)
b1110101 ,
13
15
b10001 8
b1111 :
b10000 ;
b11000 =
b11111 L
#2840000
0&
0/
#2850000
1"
0%
1&
1/
01
b1111 A
b11111 B
b11111 C
b10000 D
b10000 E
1F
b11110 J
#2860000
0&
0/
#2870000
1&
0)
1/
03
b11111 B
#2880000
0&
0/
#2890000
1&
1/
b11111 B
#2900000
0&
0/
#2905000
b11001100 !
0(
1)
13
05
b11001100 6
b10000 7
b0 9
b10000 :
b10000 ;
b11000 <
b11000 =
b100000 L
#2910000
1&
1/
b11000 ?
b11111 B
#2920000
0&
0/
#2930000
1&
1/
b11000 @
b11111 B
0F
#2940000
0&
0)
0/
03
#2950000
0"
1&
1/
b11111 B
b11111 C
#2960000
0&
0/
#2970000
b1100110 $
1%
1&
1/
11
b1100110 2
b11001100 6
b11111 B
b0 C
b0 E
1F
b11111 J
#2975000
1)
13
b10000 8
b10000 :
#2980000
0&
0/
#2990000
1"
0%
1&
1/
01
b0 A
b0 B
b0 C
b0 D
b0 E
1F
b100000 J
#3000000
0&
0/
#3010000
1&
0)
1/
03
b0 B
#3020000
0&
0/
#3030000
1&
1/
b0 B
#3040000
0&
0/
#3045000
1)
13
b0 7
b10000 :
#3050000
1&
1/
b0 B
#3060000
0&
0/
#3070000
1&
1/
b0 B
#3080000
0&
0)
0/
03
#3090000
1&
1/
b0 B
#3100000
0&
0/
#3110000
1&
1/
b0 B
#3115000
1)
13
b0 8
b10000 :
#3120000
0&
0/
#3130000
1&
1/
b0 B
#3140000
0&
0/
#3150000
1&
0)
1/
03
b0 B
#3160000
0&
0/
#3170000
1&
1/
b0 B
#3180000
0&
0/
#3185000
1)
13
b10000 :
#3190000
1&
1/
b0 B
#3200000
0&
0/
#3210000
1&
1/
b0 B
#3220000
0&
0)
0/
03
#3230000
1&
1/
b0 B
#3240000
0&
0/
#3250000
1&
1/
b0 B
#3255000
1)
13
b10000 :
#3260000
0&
0/
#3270000
1&
1/
b0 B
#3280000
0&
0/
#3290000
1&
0)
1/
03
b0 B
#3300000
0&
0/
#3310000
1&
1/
b0 B
#3320000
0&
0/
#3325000
1)
13
b10000 :
#3330000
1&
1/
b0 B
#3340000
0&
0/
#3350000
1&
1/
b0 B
#3360000
0&
0)
0/
03
#3370000
1&
1/
b0 B
#3380000
0&
0/
#3390000
1&
1/
b0 B
#3395000
1)
13
b10000 :
#3400000
0&
0/
#3410000
1&
1/
b0 B
#3420000
0&
0/
#3430000
1&
0)
1/
03
b0 B
#3440000
0&
0/
#3450000
1&
1/
b0 B
#3460000
0&
0/
#3465000
1)
13
b10000 :
#3470000
1&
1/
b0 B
#3480000
0&
0/
#3490000
1&
1/
b0 B
#3500000
0&
0)
0/
03
#3510000
1&
1/
b0 B
#3520000
0&
0/
#3530000
1&
1/
b0 B
#3535000
1)
13
b10000 :
#3540000
0&
0/
#3550000
1&
1/
b0 B
#3560000
0&
0/
#3570000
1&
0)
1/
03
b0 B
#3580000
0&
0/
#3590000
1&
1/
b0 B
#3600000
0&
0/
#3605000
1)
13
b10000 :
#3610000
1&
1/
b0 B
#3620000
0&
0/
#3630000
1&
1/
b0 B
#3640000
0&
0)
0/
03
#3650000
1&
1/
b0 B
#3660000
0&
0/
#3670000
1&
1/
b0 B
#3675000
1)
13
b10000 :
#3680000
0&
0/
#3690000
1&
1/
b0 B
#3700000
0&
0/
#3710000
1&
0)
1/
03
b0 B
#3720000
0&
0/
#3730000
1&
1/
b0 B
#3740000
0&
0/
#3745000
1)
13
b10000 :
#3750000
1&
1/
b0 B
#3760000
0&
0/
#3770000
1&
1/
b0 B
#3780000
0&
0)
0/
03
#3790000
1&
1/
b0 B
#3800000
0&
0/
#3810000
1&
1/
b0 B
#3815000
1)
13
b10000 :
#3820000
0&
0/
#3830000
1&
1/
b0 B
#3840000
0&
0/
#3850000
1&
0)
1/
03
b0 B
#3860000
0&
0/
#3870000
1&
1/
b0 B
#3880000
0&
0/
#3885000
1)
13
b10000 :
#3890000
1&
1/
b0 B
#3900000
0&
0/
#3905000
b1 K
b0 L
#3910000
1&
1/
b0 B
#3920000
0&
0)
0/
03
#3930000
1&
1/
b0 B
#3940000
0&
0/
#3950000
1&
1/
b0 B
#3955000
1(
1)
b11001100 ,
13
15
b10000 :
b10001 ;
b11001 =
b1 L
#3960000
0&
0/
#3970000
1&
1/
b0 B
#3980000
0&
0/
#3990000
1&
0)
1/
03
b0 B
b10 I
#4000000
0&
0/
#4010000
1&
1/
b0 B
#4020000
0&
0/
#4025000
b10100111 !
0(
1)
13
05
b10100111 6
b1 9
b10001 :
b10001 ;
b11001 <
b11001 =
b10 L
#4030000
1&
1/
b11001 ?
b0 B
#4040000
0&
0/
#4050000
1&
1/
b11001 @
b0 B
0F
#4060000
0&
0)
0/
03
#4070000
0"
1&
1/
b0 B
b0 C
#4080000
0&
0/
#4090000
1&
1/
b0 B
#4095000
1(
1)
b10100111 ,
13
15
b10001 :
b10010 ;
b11011 =
b11 L
#4100000
0&
0/
#4110000
1&
1/
b0 B
#4120000
0&
0/
#4130000
1&
0)
1/
03
b0 B
#4140000
0&
0/
#4150000
1&
1/
b0 B
#4160000
0&
0/
#4165000
b1010011 !
0(
1)
13
05
b1010011 6
b10 9
b10010 :
b10010 ;
b11011 <
b11011 =
b100 L
#4170000
1&
1/
b11011 ?
b0 B
#4180000
0&
0/
#4190000
1&
1/
b11011 @
b0 B
#4200000
0&
0)
0/
03
#4210000
1&
1/
b0 B
#4220000
0&
0/
#4230000
1&
1/
b0 B
#4235000
1(
1)
b1010011 ,
13
15
b10010 :
b10011 ;
b11010 =
b101 L
#4240000
0&
0/
#4250000
1&
1/
b0 B
#4260000
0&
0/
#4270000
1&
0)
1/
03
b0 B
#4280000
0&
0/
#4290000
1&
1/
b0 B
#4300000
0&
0/
#4305000
b1011 !
0(
1)
13
05
b1011 6
b11 9
b10011 :
b10011 ;
b11010 <
b11010 =
b110 L
#4310000
1&
1/
b11010 ?
b0 B
#4320000
0&
0/
#4330000
1&
1/
b11010 @
b0 B
#4340000
0&
0)
0/
03
#4350000
1&
1/
b0 B
#4360000
0&
0/
#4370000
1&
1/
b0 B
#4375000
1(
1)
b1011 ,
13
15
b10011 :
b10100 ;
b11110 =
b111 L
#4380000
0&
0/
#4390000
1&
1/
b0 B
#4400000
0&
0/
#4410000
1&
0)
1/
03
b0 B
#4420000
0&
0/
#4430000
1&
1/
b0 B
#4440000
0&
0/
#4445000
b101110 !
0(
1)
13
05
b101110 6
b100 9
b10100 :
b10100 ;
b11110 <
b11110 =
b1000 L
#4450000
1&
1/
b11110 ?
b0 B
#4460000
0&
0/
#4470000
1&
1/
b11110 @
b0 B
#4480000
0&
0)
0/
03
#4490000
1&
1/
b0 B
#4500000
0&
0/
#4510000
1&
1/
b0 B
#4515000
1(
1)
b101110 ,
13
15
b10100 :
b10101 ;
b11111 =
b1001 L
#4520000
0&
0/
#4530000
1&
1/
b0 B
#4540000
0&
0/
#4550000
1&
0)
1/
03
b0 B
#4560000
0&
0/
#4570000
1&
1/
b0 B
#4580000
0&
0/
#4585000
b1110101 !
0(
1)
13
05
b1110101 6
b101 9
b10101 :
b10101 ;
b11111 <
b11111 =
b1010 L
#4590000
1&
1/
b11111 ?
b0 B
#4600000
0&
0/
#4610000
1&
1/
b11111 @
b0 B
#4620000
0&
0)
0/
03
#4630000
1&
1/
b0 B
#4640000
0&
0/
#4650000
1&
1/
b0 B
#4655000
1(
1)
b1110101 ,
13
15
b10101 :
b10110 ;
b11101 =
b1011 L
#4660000
0&
0/
#4670000
1&
1/
b0 B
#4680000
0&
0/
#4690000
1&
0)
1/
03
b0 B
#4700000
0&
0/
#4710000
1&
1/
b0 B
#4720000
0&
0/
#4725000
b10000000 !
0(
1)
13
05
b10000000 6
b110 9
b10110 :
b10110 ;
b11101 <
b11101 =
b1100 L
#4730000
1&
1/
b11101 ?
b0 B
#4740000
0&
0/
#4750000
1&
1/
b11101 @
b0 B
#4760000
0&
0)
0/
03
#4770000
1&
1/
b0 B
#4780000
0&
0/
#4790000
1&
1/
b0 B
#4795000
1(
1)
b10000000 ,
13
15
b10110 :
b10111 ;
b11100 =
b1101 L
#4800000
0&
0/
#4810000
1&
1/
b0 B
#4820000
0&
0/
#4830000
1&
0)
1/
03
b0 B
#4840000
0&
0/
#4850000
1&
1/
b0 B
#4860000
0&
0/
#4865000
b11111010 !
0(
1)
13
05
b11111010 6
b111 9
b10111 :
b10111 ;
b11100 <
b11100 =
b1110 L
#4870000
1&
1/
b11100 ?
b0 B
#4880000
0&
0/
#4890000
1&
1/
b11100 @
b0 B
#4900000
0&
0)
0/
03
#4910000
1&
1/
b0 B
#4920000
0&
0/
#4930000
1&
1/
b0 B
#4935000
1(
1)
b11111010 ,
13
15
b10111 :
b11000 ;
b10100 =
b1111 L
#4940000
0&
0/
#4950000
1&
1/
b0 B
#4960000
0&
0/
#4970000
1&
0)
1/
03
b0 B
#4980000
0&
0/
#4990000
1&
1/
b0 B
#5000000
0&
0/
#5005000
b11101 !
0(
1)
13
05
b11101 6
b1000 9
b11000 :
b11000 ;
b10100 <
b10100 =
b10000 L
#5010000
1&
1/
b10100 ?
b0 B
#5020000
0&
0/
#5030000
1&
1/
b10100 @
b0 B
#5040000
0&
0)
0/
03
#5050000
1&
1/
b0 B
#5060000
0&
0/
#5070000
1&
1/
b0 B
#5075000
1(
1)
b11101 ,
13
15
b11000 :
b11001 ;
b10101 =
b10001 L
#5080000
0&
0/
#5090000
1&
1/
b0 B
#5100000
0&
0/
#5110000
1&
0)
1/
03
b0 B
#5120000
0&
0/
#5130000
1&
1/
b0 B
#5140000
0&
0/
#5145000
b11010100 !
0(
1)
13
05
b11010100 6
b1001 9
b11001 :
b11001 ;
b10101 <
b10101 =
b10010 L
#5150000
1&
1/
b10101 ?
b0 B
#5160000
0&
0/
#5170000
1&
1/
b10101 @
b0 B
#5180000
0&
0)
0/
03
#5190000
1&
1/
b0 B
#5200000
0&
0/
#5210000
1&
1/
b0 B
